SGSF Sentiment Analysis
…
Now, we will assign every word into NRC lexicon categories: positive,
negative, anger, anticipation, disgust, fear, joy, sadness, surprise,
and trust by inner joining the words that we got previously with the NRC
sentiments dataset provided by the tidytext package.

SG_nrc <- SGSF_Words %>%
  inner_join(get_sentiments("nrc"))
SG_nrc

## # A tibble: 65 x 3
##    word             n sentiment   
##    <chr>        <int> <chr>       
##  1 expect           5 anticipation
##  2 expect           5 positive    
##  3 expect           5 surprise    
##  4 expect           5 trust       
##  5 learn            5 positive    
##  6 career           4 anticipation
##  7 career           4 positive    
##  8 study            3 positive    
##  9 knowledge        2 positive    
## 10 professional     2 positive    
## # ... with 55 more rows
…
